          | sample size | time |  evaluations
----------+-------------+------+-----------------------
nested    | 1000        | 45s  |  4*10^6
----------+-------------+------+-----------------------
stoch     | 1000        |  5s  |  4*10^5
